R for Scientists - Solutions to Practice G
…
Find the largest and smallest differences between the daily minimum and maximum temperatures for each year.

weather %>% 
    filter(!is.na(tmin) & !is.na(tmax)) %>%   # filter out missing data
    mutate(temp_diff = abs(tmax - tmin)) %>% # make the calculation for all 
    group_by(year) %>% # grouping step
    summarise(max_diff = max(temp_diff), # extract the maximum
              min_diff = min(temp_diff)) # extract the minimum

# A tibble: 43 × 3
    year max_diff min_diff
   <int>    <dbl>    <dbl>
 1  1980     27.8    1.6  
 2  1981     27.8    1.1  
 3  1982     26.7    0.6  
 4  1983     27.8    0.5  
 5  1984     26.1    0.6  
 6  1985     28.9    0.5  
 7  1986     25      0.600
 8  1987     27.7    1.1  
 9  1988     25.5    0.6  
10  1989     24.4    0.5  
# … with 33 more rows
…
