R for Scientists - Aggregating & Summarising Data
…
The function tally() counts observations:

variety_trials %>% group_by(trial) %>% tally()

# A tibble: 28 × 2
   trial                           n
   <chr>                       <int>
 1 SWIdahoCereals_H-S_PAR_2018    88
 2 SWIdahoCereals_H-S_WEI_2018    96
 3 SWIdahoCereals_H-W_PAR_2017   120
 4 SWIdahoCereals_H-W_PAR_2018    80
 5 SWIdahoCereals_H-W_WEI_2018    48
 6 SWIdahoCereals_HRS_PAR_2016    60
 7 SWIdahoCereals_HRS_PAR_2017    32
 8 SWIdahoCereals_HRS_PAR_2019    60
 9 SWIdahoCereals_HRS_PAR_2020    48
10 SWIdahoCereals_HRW_PAR_2019    44
# ℹ 18 more rows
…
This tells us how many rows of data occur for each variable combination. This information can help inform us how to group information.

You can group by as many conditions as you want:

variety_trials %>% group_by(crop, year) %>% 
  summarise(protein_na = sum(is.na(grain_protein))) %>% arrange(desc(protein_na))

`summarise()` has grouped output by 'crop'. You can override using the
`.groups` argument.

# A tibble: 24 × 3
# Groups:   crop [8]
   crop  year  protein_na
   <chr> <chr>      <int>
 1 SWW   2017         160
 2 H-W   2018         128
 3 H-W   2017         120
 4 H-S   2018          96
 5 SWW   2018          90
 6 SWS   2018          64
 7 SWS   2017          40
 8 HRS   2017          32
 9 HWS   2017          32
10 HRW   2019           4
# ℹ 14 more rows

FYI

You can group by a numeric variable. If you do that, dplyr will look for common values to group observations. This can be successful when there are repeat ‘integers’ (e.g. year, replicate), but if all values are unique (which is often the case with floating point numbers), then the number of groups is the number of observations.

Summarising across multiple variables

Use across() to conduct the same summary action(s) across multiple columns.

variety_trials %>% group_by(trial) %>% 
  summarise(across(c(yield, grain_protein), ~ mean(.x, na.rm = T)))

# A tibble: 28 × 3
   trial                       yield grain_protein
   <chr>                       <dbl>         <dbl>
 1 SWIdahoCereals_H-S_PAR_2018  91.0         10.9 
 2 SWIdahoCereals_H-S_WEI_2018  27.0        NaN   
 3 SWIdahoCereals_H-W_PAR_2017 121.         NaN   
 4 SWIdahoCereals_H-W_PAR_2018  63.1        NaN   
 5 SWIdahoCereals_H-W_WEI_2018  28.4        NaN   
 6 SWIdahoCereals_HRS_PAR_2016 111.          14.3 
 7 SWIdahoCereals_HRS_PAR_2017 150.         NaN   
 8 SWIdahoCereals_HRS_PAR_2019 106.          11.7 
 9 SWIdahoCereals_HRS_PAR_2020  90.6         12.7 
10 SWIdahoCereals_HRW_PAR_2019  88.2          8.20
# ℹ 18 more rows
…
